…
## The following objects are masked from 'package:stats':
## 
##     filter, lag

## The following objects are masked from 'package:base':
## 
##     intersect, setdiff, setequal, union

df2 <- group_by(df_melt, Years, Countries)
df2

## # A tibble: 49 x 3
## # Groups:   Years, Countries [49]
##    Years Countries NoOfPhones
##    <dbl> <fct>          <dbl>
##  1  1951 N.Amer         45939
##  2  1956 N.Amer         60423
##  3  1957 N.Amer         64721
##  4  1958 N.Amer         68484
##  5  1959 N.Amer         71799
##  6  1960 N.Amer         76036
##  7  1961 N.Amer         79831
##  8  1951 Europe         21574
##  9  1956 Europe         29990
## 10  1957 Europe         32510
## # ... with 39 more rows
…
